name	nbRequest	nbRequestOK	nbRequestKO	minResponseTime	minResponseTimeOK	minResponseTimeKO	maxResponseTime	maxResponseTimeOK	maxResponseTimeKO	meanResponseTime	meanResponseTimeOK	meanResponseTimeKO	deviation	deviationOK	deviationKO	percentile1	percentile1OK	percentile1KO	percentile2	percentile2OK	percentile2KO	group1Name	group1Count	group1Percentage	group2Name	group2Count	group2Percentage	group3Name	group3Count	group3Percentage	group4Name	group4Count	group4Percentage	meanNumberOfRequestsPerSecond	meanNumberOfRequestsPerSecondOK	meanNumberOfRequestsPerSecondKO
Global Information	1	1	0	140	140	-1	140	140	-1	140	140	-1	0	0	-1	140	140	-1	140	140	-1	t < 800 ms	1	100	800 ms < t < 1200 ms	0	0	t > 1200 ms	0	0	failed	0	0	4	4	-1
GetAndLog	1	1	0	280	280	-1	280	280	-1	280	280	-1	0	0	-1	280	280	-1	280	280	-1	t < 800 ms	1	100	800 ms < t < 1200 ms	0	0	t > 1200 ms	0	0	failed	0	0	4	4	-1
GetAndLog / get_request_1	1	1	0	140	140	-1	140	140	-1	140	140	-1	0	0	-1	140	140	-1	140	140	-1	t < 800 ms	1	100	800 ms < t < 1200 ms	0	0	t > 1200 ms	0	0	failed	0	0	4	4	-1
