{
    "name": "Global Information",
    "numberOfRequests": {
        "total": 1,
        "ok": 1,
        "ko": 0
    },
    "minResponseTime": {
        "total": 140,
        "ok": 140,
        "ko": -1
    },
    "maxResponseTime": {
        "total": 140,
        "ok": 140,
        "ko": -1
    },
    "meanResponseTime": {
        "total": 140,
        "ok": 140,
        "ko": -1
    },
    "standardDeviation": {
        "total": 0,
        "ok": 0,
        "ko": -1
    },
    "percentiles1": {
        "total": 140,
        "ok": 140,
        "ko": -1
    },
    "percentiles2": {
        "total": 140,
        "ok": 140,
        "ko": -1
    },
    "group1": {
        "name": "t < 800 ms",
        "count": 1,
        "percentage": 100
    },
    "group2": {
        "name": "800 ms < t < 1200 ms",
        "count": 0,
        "percentage": 0
    },
    "group3": {
        "name": "t > 1200 ms",
        "count": 0,
        "percentage": 0
    },
    "group4": {
        "name": "failed",
        "count": 0,
        "percentage": 0
    },
    "meanNumberOfRequestsPerSecond": {
        "total": 4,
        "ok": 4,
        "ko": -1
    }
}